…
## В какой отрасли самый низкий уровень безработицы?

Чтобы ответить на этот вопрос, нам нужно просто отсортировать данные.
Для этого мы используем функцию `arrange` и отсортируем данные по
переменной `unemployment_rate`. По умолчанию `arrange` сортирует в
порядке возрастания, что нам и требуется - нас интересует специальность
с *самым низким* уровнем безработицы.

``` r
college_recent_grads %>%
  arrange(unemployment_rate)
```

    ## # A tibble: 173 x 21
    ##     rank major_code major        major_category    total sample_size   men women
    ##    <int>      <int> <chr>        <chr>             <int>       <int> <int> <int>
    ##  1    53       4005 Mathematics~ Computers & Math~   609           7   500   109
    ##  2    74       3801 Military Te~ Industrial Arts ~   124           4   124     0
    ##  3    84       3602 Botany       Biology & Life S~  1329           9   626   703
    ##  4   113       1106 Soil Science Agriculture & Na~   685           4   476   209
    ##  5   121       2301 Educational~ Education           804           5   280   524
    ##  6    15       2409 Engineering~ Engineering        4321          30  3526   795
    ##  7    20       3201 Court Repor~ Law & Public Pol~  1148          14   877   271
    ##  8   120       2305 Mathematics~ Education         14237         123  3872 10365
    ##  9     1       2419 Petroleum E~ Engineering        2339          36  2057   282
    ## 10    65       1100 General Agr~ Agriculture & Na~ 10399         158  6053  4346
    ## # ... with 163 more rows, and 13 more variables: sharewomen <dbl>,
    ## #   employed <int>, employed_fulltime <int>, employed_parttime <int>,
    ## #   employed_fulltime_yearround <int>, unemployed <int>,
    ## #   unemployment_rate <dbl>, p25th <dbl>, median <dbl>, p75th <dbl>,
    ## #   college_jobs <int>, non_college_jobs <int>, low_wage_jobs <int>
…
Мы можем использовать функцию `select`, чтобы выбрать, какие переменные
отображать и в каком порядке:

``` r
college_recent_grads %>%
  arrange(unemployment_rate) %>%
  select(rank, major, unemployment_rate)
```

    ## # A tibble: 173 x 3
    ##     rank major                                      unemployment_rate
    ##    <int> <chr>                                                  <dbl>
    ##  1    53 Mathematics And Computer Science                     0      
    ##  2    74 Military Technologies                                0      
    ##  3    84 Botany                                               0      
    ##  4   113 Soil Science                                         0      
    ##  5   121 Educational Administration And Supervision           0      
    ##  6    15 Engineering Mechanics Physics And Science            0.00633
    ##  7    20 Court Reporting                                      0.0117 
    ##  8   120 Mathematics Teacher Education                        0.0162 
    ##  9     1 Petroleum Engineering                                0.0184 
    ## 10    65 General Agriculture                                  0.0196 
    ## # ... with 163 more rows

Хорошо, так выглядит лучше, но действительно ли нам нужно отображать все
эти десятичные знаки в переменной безработицы? Не совсем!

Мы можем использовать функцию `percent()`, чтобы немного сократить
отображение.

``` r
college_recent_grads %>%
  arrange(unemployment_rate) %>%
  select(rank, major, unemployment_rate) %>%
  mutate(unemployment_rate = percent(unemployment_rate))
```

    ## # A tibble: 173 x 3
    ##     rank major                                      unemployment_rate
    ##    <int> <chr>                                      <chr>            
    ##  1    53 Mathematics And Computer Science           0.00000%         
    ##  2    74 Military Technologies                      0.00000%         
    ##  3    84 Botany                                     0.00000%         
    ##  4   113 Soil Science                               0.00000%         
    ##  5   121 Educational Administration And Supervision 0.00000%         
    ##  6    15 Engineering Mechanics Physics And Science  0.63343%         
    ##  7    20 Court Reporting                            1.16897%         
    ##  8   120 Mathematics Teacher Education              1.62028%         
    ##  9     1 Petroleum Engineering                      1.83805%         
    ## 10    65 General Agriculture                        1.96425%         
    ## # ... with 163 more rows

## На какой специальности больше всего женщин?

Для ответа на этот вопрос нужно расположить данные в порядке убывания.
Например, если бы в предыдущем вопросе нас интересовала специализация с
самым высоким уровнем безработицы, мы бы использовали следующий код
(функция `desc` определяет обратный порядок сортировки):

``` r
college_recent_grads %>%
  arrange(desc(unemployment_rate)) %>%
  select(rank, major, unemployment_rate)
```

    ## # A tibble: 173 x 3
    ##     rank major                                      unemployment_rate
    ##    <int> <chr>                                                  <dbl>
    ##  1     6 Nuclear Engineering                                    0.177
    ##  2    90 Public Administration                                  0.159
    ##  3    85 Computer Networking And Telecommunications             0.152
    ##  4   171 Clinical Psychology                                    0.149
    ##  5    30 Public Policy                                          0.128
    ##  6   106 Communication Technologies                             0.120
    ##  7     2 Mining And Mineral Engineering                         0.117
    ##  8    54 Computer Programming And Data Processing               0.114
    ##  9    80 Geography                                              0.113
    ## 10    59 Architecture                                           0.113
    ## # ... with 163 more rows
…
### Упражнение 4

Какая категория специальностей имеет самый высокий типичный медианный
доход? Рассчитайте описательные статистики для категорий специальностей,
упорядочите категории по убыванию типичного дохода.

``` r
college_recent_grads %>%
  group_by(major_category)  %>%
  arrange(desc(median)) %>%
  select(major_category, median)
```

    ## # A tibble: 173 x 2
    ## # Groups:   major_category [16]
    ##    major_category    median
    ##    <chr>              <dbl>
    ##  1 Engineering       110000
    ##  2 Engineering        75000
    ##  3 Engineering        73000
    ##  4 Engineering        70000
    ##  5 Engineering        65000
    ##  6 Engineering        65000
    ##  7 Business           62000
    ##  8 Physical Sciences  62000
    ##  9 Engineering        60000
    ## 10 Engineering        60000
    ## # ... with 163 more rows
…
Создайте во фрейме новую переменную `major_type`, которая принимает
значение `stem` для естественно-научных категорий (Biology & Life
Science, Computers & Mathematics, Engineering, Physical Sciences) и
значение `non-stem` для все остальных.

``` r
college_recent_grads %>%
  mutate(
  major_type = if_else(major_category=="Biology & Life Science" | major_category=="Computers & Mathematics"| major_category=="Engineering"|major_category=="Physical Sciences", "stem", "non-stem")
  )%>%
  select(major_category, major_type)
```

    ## # A tibble: 173 x 2
    ##    major_category    major_type
    ##    <chr>             <chr>     
    ##  1 Engineering       stem      
    ##  2 Engineering       stem      
    ##  3 Engineering       stem      
    ##  4 Engineering       stem      
    ##  5 Engineering       stem      
    ##  6 Engineering       stem      
    ##  7 Business          non-stem  
    ##  8 Physical Sciences stem      
    ##  9 Engineering       stem      
    ## 10 Engineering       stem      
    ## # ... with 163 more rows
…
